<?xml version="1.0" encoding="UTF-8" standalone="no" ?>
<!-- Created with Inkscape (http://www.inkscape.org/) -->

<svg
    xmlns:dc="http://purl.org/dc/elements/1.1/"
    xmlns:cc="http://creativecommons.org/ns#"
    xmlns:rdf="http://www.w3.org/1999/02/22-rdf-syntax-ns#"
    xmlns:svg="http://www.w3.org/2000/svg"
    xmlns="http://www.w3.org/2000/svg"
    xmlns:sodipodi="http://sodipodi.sourceforge.net/DTD/sodipodi-0.dtd"
    xmlns:inkscape="http://www.inkscape.org/namespaces/inkscape"
    width="32"
    height="32"
    viewBox="0 0 32 32"
    version="1.1"
    id="status"
    inkscape:version="0.92.4 (5da689c313, 2019-01-14)"
    sodipodi:docname="loading.svg"
    enable-background="new">
  <defs id="defs2" />
  <sodipodi:namedview
      id="base"
      pagecolor="#ffffff"
      bordercolor="#666666"
      borderopacity="1.0"
      inkscape:pageopacity="0.0"
      inkscape:pageshadow="2"
      inkscape:zoom="32"
      inkscape:cx="12.531426"
      inkscape:cy="16.252101"
      inkscape:document-units="px"
      inkscape:current-layer="layer1"
      showgrid="true"
      units="px"
      inkscape:pagecheckerboard="false"
      inkscape:window-width="2560"
      inkscape:window-height="1377"
      inkscape:window-x="-8"
      inkscape:window-y="-8"
      inkscape:window-maximized="1"
      inkscape:snap-grids="true"
      inkscape:object-paths="true">
    <inkscape:grid
        type="axonomgrid"
        id="grid3717"
        units="px"
        empspacing="8"
        spacingy="0.25"
        originy="8"
        originx="2.1435935"
        color="#3fffff"
        opacity="0.1254902"
        gridanglex="30" />
  </sodipodi:namedview>
  <metadata id="metadata5">
    <rdf:RDF>
      <cc:Work rdf:about="">
        <dc:format>image/svg+xml</dc:format>
        <dc:type rdf:resource="http://purl.org/dc/dcmitype/StillImage" />
        <dc:title />
      </cc:Work>
    </rdf:RDF>
  </metadata>
  <g
      inkscape:label="Layer 1"
      inkscape:groupmode="layer"
      id="layer1"
      transform="translate(0,-2524.2)"
      style="display:inline">
    <path
        style="fill:#d3fbff;fill-opacity:1"
        d="m 16,3 -11.2583303,6.5 0,4 12.1230473,7 -3.461856,1 13.855469,-8 v -4 z"
        id="right"
        transform="translate(0,2524.2)"
        inkscape:connector-curvature="0"
        sodipodi:nodetypes="cccccccc" />
    <path
        style="fill:#1aeaff;fill-opacity:1;stroke:none;stroke-width:1px;stroke-linecap:butt;stroke-linejoin:miter;stroke-opacity:1"
        d="m 4.7416697,13.5 v 9 L 16,29 l 11.25833,-6.5 0,-9 L 16,20 Z"
        transform="translate(0,2524.2)"
        id="path835"
        inkscape:connector-curvature="0"
        sodipodi:nodetypes="ccccccc" />
    <path
        style="fill:#00c8db;fill-opacity:1;stroke:none;stroke-width:1px;stroke-linecap:butt;stroke-linejoin:miter;stroke-opacity:1"
        d="M 16,2.75 4.5251634,9.375 v 13.25 L 16,29.25 27.474837,22.625 V 9.375 Z m 0,0.5 11.041824,6.375 v 12.75 L 16,28.75 4.9581761,22.375 V 9.625 Z"
        id="path1425"
        transform="translate(0,2524.2)"
        inkscape:connector-curvature="0"
        sodipodi:nodetypes="cccccccccccccc" />
    <path
        style="fill:#00c8db;stroke:none;stroke-width:1px;stroke-linecap:butt;stroke-linejoin:miter;stroke-opacity:1;fill-opacity:1"
        d="M 16 0 L 2.1445312 8 L 2.1445312 24 L 16 32 L 29.855469 24 L 29.855469 8 L 16 0 z M 16 0.5 L 29.423828 8.25 L 29.423828 23.75 L 16 31.5 L 2.5761719 23.75 L 2.5761719 8.25 L 16 0.5 z "
        transform="translate(0,2524.2)"
        id="path1420" />
    <path
        style="fill:#00c8db;fill-opacity:1;stroke:none;stroke-width:0.01;stroke-linecap:butt;stroke-linejoin:miter;stroke-miterlimit:4;stroke-dasharray:none;stroke-opacity:1"
        d="m 16,2539.95 -10.8253176,-6.25 -0.2165063,0.125 0,0.25 10.8253179,6.25 v 12.5 L 16,2552.95 l 0.216506,-0.125 v -12.5 l 10.825318,-6.25 v -0.25 l -0.216506,-0.125"
        id="path1432"
        inkscape:connector-curvature="0"
        sodipodi:nodetypes="cccccccccccc" />
    <path
        style="fill:#00c8db;fill-opacity:1;stroke:none;stroke-width:0.01;stroke-linecap:butt;stroke-linejoin:miter;stroke-miterlimit:4;stroke-dasharray:none;stroke-opacity:1"
        d="M 4.9581761,2538.075 16,2544.45 l 11.041824,-6.375 v -0.5 L 16,2543.95 4.9581761,2537.575 Z"
        id="path1434"
        inkscape:connector-curvature="0"
        sodipodi:nodetypes="ccccccc" />
    <path
        style="stroke:none;stroke-width:0.01;stroke-linecap:butt;stroke-linejoin:miter;stroke-miterlimit:4;stroke-dasharray:none;stroke-opacity:1;fill:#71f2ff;fill-opacity:1"
        d="m 16,2524.7 13.423394,7.75 -1.948557,1.125 L 16,2526.95 Z"
        id="segment0"
        inkscape:connector-curvature="0"
        sodipodi:nodetypes="ccccc">
      <animate
          attributeName="fill"
          values="#71f2ff;#ffffff;#71f2ff;#71f2ff"
          dur="6s"
          keyTimes="0;0.25;0.5;1"
          repeatCount="indefinite" />
    </path>
    <path
        style="fill:#71f2ff;stroke:none;stroke-width:0.01;stroke-linecap:butt;stroke-linejoin:miter;stroke-opacity:1;stroke-miterlimit:4;stroke-dasharray:none"
        d="m 27.474837,2533.575 1.948557,-1.125 v 15.5 l -1.948557,-1.125 z"
        id="segment1"
        inkscape:connector-curvature="0">
      <animate
          attributeName="fill"
          values="#71f2ff;#ffffff;#71f2ff;#71f2ff"
          begin="1s"
          dur="6s"
          keyTimes="0;0.25;0.5;1"
          repeatCount="indefinite" />
    </path>
    <path
        style="fill:#71f2ff;stroke:none;stroke-width:0.01;stroke-linecap:butt;stroke-linejoin:miter;stroke-miterlimit:4;stroke-dasharray:none;stroke-opacity:1"
        d="m 16,2555.7 13.423394,-7.75 -1.948557,-1.125 L 16,2553.45 Z"
        id="segment2"
        inkscape:connector-curvature="0"
        sodipodi:nodetypes="ccccc">
      <animate
          attributeName="fill"
          values="#71f2ff;#ffffff;#71f2ff;#71f2ff"
          begin="2s"
          dur="6s"
          keyTimes="0;0.25;0.5;1"
          repeatCount="indefinite" />
    </path>
    <path
        style="fill:#71f2ff;stroke:none;stroke-width:1px;stroke-linecap:butt;stroke-linejoin:miter;stroke-opacity:1;fill-opacity:1"
        d="M 16,2555.7 2.5766062,2547.95 4.5251634,2546.825 16,2553.45 Z"
        id="segment3"
        inkscape:connector-curvature="0">
      <animate
          attributeName="fill"
          values="#71f2ff;#ffffff;#71f2ff;#71f2ff"
          begin="3s"
          dur="6s"
          keyTimes="0;0.25;0.5;1"
          repeatCount="indefinite" />
    </path>
    <path
        style="fill:#71f2ff;stroke:none;stroke-width:1px;stroke-linecap:butt;stroke-linejoin:miter;stroke-opacity:1;fill-opacity:1"
        d="m 2.5766062,2547.95 v -15.5 l 1.9485572,1.125 v 13.25 z"
        id="segment4"
        inkscape:connector-curvature="0">
      <animate
          attributeName="fill"
          values="#71f2ff;#ffffff;#71f2ff;#71f2ff"
          begin="4s"
          dur="6s"
          keyTimes="0;0.25;0.5;1"
          repeatCount="indefinite" />
    </path>
    <path
        style="fill:#71f2ff;stroke:none;stroke-width:1px;stroke-linecap:butt;stroke-linejoin:miter;stroke-opacity:1;fill-opacity:1"
        d="M 2.5766062,2532.45 16,2524.7 v 2.25 l -11.4748366,6.625 z"
        id="segment5"
        inkscape:connector-curvature="0">
      <animate
          attributeName="fill"
          values="#71f2ff;#ffffff;#71f2ff;#71f2ff"
          begin="5s"
          dur="6s"
          keyTimes="0;0.25;0.5;1"
          repeatCount="indefinite" />
    </path>
  </g>
</svg>
